<?xml version="1.0" encoding="UTF-8"?>
<svg width="24px" height="24px" viewBox="0 0 24 24" version="1.1" xmlns="http://www.w3.org/2000/svg" xmlns:xlink="http://www.w3.org/1999/xlink">
    <!-- Generator: Sketch 54.1 (76490) - https://sketchapp.com -->
    <title>Atoms / Icons / Arrow_left</title>
    <desc>Created with Sketch.</desc>
    <defs>
        <polygon id="path-1" points="18.9015544 17.2725629 23.9924767 12.24 18.9015544 7.20743707 18.9015544 10.8263415 0 10.8263415 0 13.6536585 18.9015544 13.6536585"></polygon>
    </defs>
    <g id="Atoms-/-Icons-/-Arrow_left" stroke="none" stroke-width="1" fill="none" fill-rule="evenodd">
        <mask id="mask-2" fill="white">
            <use xlink:href="#path-1"></use>
        </mask>
        <use id="Icon" fill="#000000" transform="translate(11.996238, 12.240000) scale(-1, 1) translate(-11.996238, -12.240000) " xlink:href="#path-1"></use>
        <g id="Atoms-/-Colors-/-0_Dark-grey" mask="url(#mask-2)" fill="#4A4A4A" fill-rule="nonzero">
            <rect id="Rectangle" x="0" y="0" width="24" height="24"></rect>
        </g>
    </g>
</svg>